{
    "antifeatures": {
        "Ads": "Den här appen innehåller reklam",
        "DisabledAlgorithm": "Denna app har en svag säkerhetssignatur",
        "KnownVuln": "Denna app innehåller en känd säkerhetsårbarhet",
        "NoSourceSince": "Källkoden är inte längre tillgänglig, inga uppdateringar möjliga.",
        "NonFreeAdd": "Den här appen uppmuntrar icke-fria tillägg",
        "NonFreeAssets": "Denna app innehåller icke-fria tillgångar",
        "NonFreeDep": "Den här appen är beroende av andra icke-fria appar",
        "NonFreeNet": "Den här appen uppmuntrar icke-fria nätverkstjänster",
        "Tracking": "Den här appen spårar och rapporterar om din aktivitet",
        "UpstreamNonFree": "Källkoden från uppström är inte fullständigt fri"
    },
    "index": {
        "download_fdroid": "Hämta F-Droid",
        "gpg_signature": "PGP-signatur",
        "introduction": "F-Droid är en installerbar katalog av FOSS (Mjukvara med fri och öppen källkod) applikationer för Android-plattformen. Klienten gör det enkelt att bläddra, installera och hålla koll på uppdateringar till din enhet.",
        "screenshot": "F-Droid Android app-skärmdump",
        "title": "Vad är F-Droid?"
    },
    "navigation": {
        "about": "Om",
        "browse": "Bläddra",
        "contribute": "Bidra",
        "documentation": "Dokument",
        "forum": "Forum",
        "issues": "Problem",
        "news": "Nyheter"
    },
    "package": {
        "anti_features": "Anti-funktioner",
        "anti_features_warning": "Denna app har funktioner som du kanske inte gillar.",
        "author": "Författare",
        "build_metadata": "Bygg metadata",
        "changelog": "Ändringslogg",
        "donate": "Donera",
        "download": "Ladda ner [file_extension]",
        "flattr": "Flattr",
        "gpg_signature": "PGP-signatur",
        "issue_tracker": "Felbevakare",
        "liberapay": "Liberapay",
        "license": "Licens",
        "minimum_android_version": "Den här versionen kräver Android [android_version] eller senare.",
        "new_in_version": "Nytt i version [latest_version]",
        "packages": "Paket",
        "permissions": "Behörigheter",
        "signed_by_developer": "Den är byggd och signerad av originalutvecklaren.",
        "signed_by_fdroid": "Den är byggd och signerad av F-Droid, vilket garanterat motsvarar <a href=\"[source_code_url]\">\ndet här källkodsarkivet (tarball)</a>",
        "source_code": "Källkod",
        "suggest_downloading_via_fdroid": "Nedan finns APK-hämtningar tillgängliga, men du bör vara medveten att om att installering genom detta sätt förhindrar dig från att ta emot uppdateringsaviseringar och är en mindre säker väg för hämtning. Vi rekommenderar att du installerar och använder F-Droid istället.",
        "technical_info": "Teknisk info",
        "translation": "Översättning",
        "version_info": "<b>Version [package_version]</b> ([package_version_code]) - Tillagd [package_added_date]",
        "website": "Webbsida"
    },
    "permissions": {
        "permdesc_acceptHandovers": "Tillåter att appen fortsätter ett samtal som har startats i en annan app.",
        "permdesc_accessCoarseLocation": "Appen kan få information om din plats från källor i nätverket, som mobilmaster och Wi-Fi-nätverk. De platstjänsterna måste ha aktiverats och finnas på mobilen om appen ska kunna använda dem.",
        "permdesc_accessDrmCertificates": "Tillåter att en app tillhandahåller och använder DRM-certifikat. Behövs inte för vanliga appar.",
        "permdesc_accessFineLocation": "Appen kan få information om din plats från GPS eller platskällor i nätverket, som mobilmaster och Wi-Fi-nätverk. De platstjänsterna måste ha aktiverats och finnas på mobilen om appen ska kunna använda dem. Detta kan leda till ökad batteriförbrukning.",
        "permdesc_accessImsCallService": "Tillåter att appen använder tjänsten för snabbmeddelanden för att ringa samtal utan åtgärd från dig.",
        "permdesc_accessLocationExtraCommands": "Tillåter att appen får åtkomst till extra kommandon för platsleverantör. Detta kan innebära att appen tillåts störa funktionen för GPS eller andra platskällor.",
        "permdesc_accessNetworkConditions": "Tillåter att appen lyssnar efter information om nätverksförhållanden. Vanliga appar bör aldrig behöva den här behörigheten.",
        "permdesc_accessNetworkState": "Tillåter att appen kommer åt information om nätverksanslutningarna, till exempel vilka nätverk som finns och är anslutna.",
        "permdesc_accessNotifications": "Tillåter att appen hämtar, granskar och raderar meddelanden, även sådana som skickats av andra appar.",
        "permdesc_accessWifiState": "Tillåter att appen kommer åt information om Wi-Fi-nätverk, till exempel om Wi-Fi är aktiverat och namn på anslutna Wi-Fi-enheter.",
        "permdesc_accessWimaxState": "Tillåter att appen avgör om WiMAX är aktiverat och kommer åt information om eventuella anslutna WiMAX-nätverk.",
        "permdesc_access_notification_policy": "Ger appen läs- och skrivbehörighet till konfigurationen för Stör ej.",
        "permdesc_addVoicemail": "Gör att appen lägger till meddelanden i röstbrevlådans inkorg.",
        "permdesc_answerPhoneCalls": "Ger tillåtelse att svara på inkommande telefonsamtal via appen.",
        "permdesc_bindCarrierMessagingService": "Innehavaren tillåts att binda till den översta nivåns gränssnitt för en operatörs meddelandetjänst. Ska inte behövas för vanliga appar.",
        "permdesc_bindCarrierServices": "Tillåter att innehavaren binder till leverantörstjänster. Det här ska inte behövas för vanliga appar.",
        "permdesc_bindConditionProviderService": "Innehavaren tillåts att binda till den översta nivåns gränssnitt för en leverantörstjänst. Ska inte behövas för vanliga appar.",
        "permdesc_bindDreamService": "Innehavaren tillåts att binda till den översta nivåns gränssnitt för en drömtjänst. Ska inte behövas för vanliga appar.",
        "permdesc_bindNotificationListenerService": "Innehavaren tillåts att binda till den översta nivåns gränssnitt för en meddelandelyssnare. Ska inte behövas för vanliga appar.",
        "permdesc_bind_connection_service": "Tillåter appen att använda telefonitjänster för att ringa/ta emot samtal.",
        "permdesc_bind_incall_service": "Tillåter att appen kontrollerar hur och när användaren ser skärmen för inkommande samtal.",
        "permdesc_bluetooth": "Tillåter att appen kommer åt mobilens Bluetooth-konfiguration och upprättar och godkänner anslutningar till parkopplade enheter.",
        "permdesc_bluetoothAdmin": "Tillåter att appen konfigurerar den lokala Bluetooth-mobilen samt upptäcker och parkopplar den med fjärranslutna enheter.",
        "permdesc_bodySensors": "Ger appen åtkomst till information från sensorer om ditt fysiska tillstånd, till exempel din puls.",
        "permdesc_broadcastSticky": "Tillåter att appen skickar sticky broadcast, som finns kvar när sändningen är slut. Vid intensiv användning kan mobilen bli långsam eller instabil eftersom minnet överbelastas.",
        "permdesc_callPhone": "Tillåter att appen ringer telefonnummer utan någon aktiv åtgärd från dig. Detta kan leda till oväntade avgifter och samtal. Observera att appen inte tillåts ringa nödsamtal. Skadliga appar kan ringa utan ditt godkännande och detta kan kosta pengar.",
        "permdesc_camera": "Appen kan ta kort och spela in video med kameran när som helst.",
        "permdesc_changeNetworkState": "Tillåter att appen ändrar statusen för en nätverksanslutning.",
        "permdesc_changeTetherState": "Tillåter att appen ändrar statusen för en delad nätverksanslutning.",
        "permdesc_changeWifiMulticastState": "Tillåter att appen tar emot paket som skickats med multicast-adress till alla enheter i ett Wi-Fi-nätverk och inte bara till den här mobilen. Detta drar mer batteri än när multicastläget inte används.",
        "permdesc_changeWifiState": "Tillåter att appen ansluter till och kopplar från Wi-Fi-åtkomstpunkter samt gör ändringar i enhetens konfiguration för Wi-Fi-nätverk.",
        "permdesc_changeWimaxState": "Tillåter att appen ansluter mobilen till eller kopplar från WiMAX-nätverk.",
        "permdesc_connection_manager": "Tillåter att appen hanterar telekommunikationsanslutningar.",
        "permdesc_control_incall_experience": "Tillåter att appen förbättrar användarupplevelsen för inkommande samtal.",
        "permdesc_createNetworkSockets": "Tillåter att appen skapar nätverksuttag och använder anpassade nätverksprotokoll. Webbläsaren och andra appar gör det möjligt att skicka data till Internet, så den här behörigheten krävs inte för att skicka data till Internet.",
        "permdesc_disableKeyguard": "Tillåter att appen inaktiverar tangentlåset och tillhörande lösenordsskydd. Ett exempel kan vara att tangentlåset inaktiveras vid inkommande samtal och aktiveras igen när samtalet är avslutat.",
        "permdesc_enableCarMode": "Tillåter att appen aktiverar billäge.",
        "permdesc_expandStatusBar": "Tillåter att appen expanderar eller komprimerar statusfältet.",
        "permdesc_foregroundService": "Tillåter att appen använder tjänster i förgrunden.",
        "permdesc_getAccounts": "Tillåter att appen hämtar en lista över alla kända konton på mobilen. Detta kan inkludera konton som har skapats av appar som du har installerat.",
        "permdesc_getPackageSize": "Tillåter att appen hämtar kod, data och cachestorlekar",
        "permdesc_getTasks": "Tillåter att appen hämtar information om nyligen körda och pågående aktiviteter. Detta kan innebära att appen tillåts ta reda på vilka appar som används på enheten.",
        "permdesc_handoverStatus": "Tillåter att appen tar emot information om aktuella Android Beam-överföringar",
        "permdesc_install_shortcut": "Tillåter att en app lägger till genvägar på startskärmen utan åtgärd från användaren.",
        "permdesc_invokeCarrierSetup": "Innehavaren tillåts att anropa konfigurationsappen från operatören. Ska inte behövas för vanliga appar.",
        "permdesc_killBackgroundProcesses": "Tillåter att appen avslutar andra appars bakgrundsprocesser. Detta kan göra så att andra appar avslutas.",
        "permdesc_manageFingerprint": "Tillåter att appen anropar metoder för att lägga till och radera fingeravtrycksmallar.",
        "permdesc_manageNetworkPolicy": "Tillåter att appen hanterar nätverkspolicyer och definierar appspecifika regler.",
        "permdesc_manageOwnCalls": "Appen tillåts att dirigera samtal via systemet för att förbättra samtalsupplevelsen.",
        "permdesc_manageProfileAndDeviceOwners": "Tillåter att appar anger profilägare och enhetsägare.",
        "permdesc_modifyAudioSettings": "Tillåter att appen ändrar globala ljudinställningar som volym och vilken högtalarutgång som används.",
        "permdesc_modifyNetworkAccounting": "Tillåter att appen ändrar hur nätverksanvändning redovisas för appar. Används inte av vanliga appar.",
        "permdesc_nfc": "Tillåter att appen kommunicerar med etiketter, kort och läsare för närfältskommunikation (NFC).",
        "permdesc_persistentActivity": "Tillåter att delar av appen läggs beständigt i minnet. Detta kan innebära att det tillgängliga minnet för andra appar begränsas, vilket gör mobilen långsam.",
        "permdesc_processOutgoingCalls": "Tillåter att appen ser numret du slår under ett utgående samtal och har möjlighet att koppla samtalet till ett annat nummer eller avbryta samtalet helt.",
        "permdesc_readCalendar": "Appen kan läsa alla kalenderhändelser som sparats på mobilen och dela eller spara uppgifter i din kalender.",
        "permdesc_readCallLog": "Appen kan läsa din samtalshistorik.",
        "permdesc_readCellBroadcasts": "Appen tillåts läsa SMS som skickas till din enhet. På vissa platser skickas SMS för att varna för nödsituationer. Skadliga appar kan påverka enhetens prestanda eller funktionalitet när du får ett meddelande om en nödsituation via SMS.",
        "permdesc_readContacts": "Tillåter att appen läser kontaktuppgifter som sparats på mobilen, inklusive information om hur ofta du har ringt, skickat e-post till eller på andra sätt kommunicerat med specifika personer. Med den här behörigheten tillåts appen att spara kontaktuppgifter. Skadliga appar kan dela uppgifterna med andra utan din vetskap.",
        "permdesc_readHistoryBookmarks": "Tillåter att appen läser historiken för besökta sidor och alla bokmärken i webbläsaren. Observera att den här behörigheten kanske inte är tillämplig för webbläsare från tredje part eller andra appar med surffunktion.",
        "permdesc_readInstallSessions": "Tillåt appen att läsa installationssessioner. Det ger den tillgång till uppgifter om aktiva paketinstallationer.",
        "permdesc_readNetworkUsageHistory": "Tillåter att appen läser den historiska nätverksanvändningen för specifika nätverk och appar.",
        "permdesc_readPhoneNumbers": "Appen beviljas åtkomst till enhetens telefonnummer.",
        "permdesc_readPhoneState": "Tillåter att appen kommer åt enhetens telefonfunktioner. Med den här behörigheten tillåts appen att identifiera mobilens telefonnummer och enhets-ID, om ett samtal pågår och vilket nummer samtalet är kopplat till.",
        "permdesc_readSms": "Appen kan läsa alla sms som sparats på mobilen.",
        "permdesc_readSyncSettings": "Tillåter att appen läser synkroniseringsinställningarna för ett konto. Detta kan användas till exempel för att avgöra om appen Personer är synkroniserad med ett konto.",
        "permdesc_readSyncStats": "Tillåter att appen läser synkroniseringsstatistik för ett konto, inklusive historiken för synkroniseringshändelser och mängden data som synkroniseras.",
        "permdesc_receiveBootCompleted": "Tillåter att appen startar automatiskt när systemet har startats om. Detta kan innebära att det tar längre tid att starta mobilen och att mobilen blir långsammare i och med att appen hela tiden körs i bakgrunden.",
        "permdesc_receiveMms": "Tillåter att appen tar emot och hanterar MMS-meddelanden. Detta innebär att appen kan övervaka eller ta bort meddelanden som skickats till enheten utan att visa dem för dig.",
        "permdesc_receiveSms": "Tillåter att appen tar emot och hanterar SMS. Detta innebär att appen kan övervaka eller ta bort meddelanden som skickats till enheten utan att visa dem för dig.",
        "permdesc_receiveWapPush": "Tillåter att appen tar emot och hanterar WAP-meddelanden. Med den här behörigheten kan appen övervaka eller ta bort meddelanden som skickats till dig utan att visa dem för dig.",
        "permdesc_recordAudio": "Appen kan spela in ljud med mikrofonen när som helst.",
        "permdesc_register_call_provider": "Tillåter att appen registrerar nya telekommunikationsanslutningar.",
        "permdesc_register_sim_subscription": "Tillåter att appen registrerar nya telekommunikationsanslutningar för SIM-kortet.",
        "permdesc_removeDrmCertificates": "Tillåter ett program att ta bort DRM-certifikat. Behövs inte för vanliga appar.",
        "permdesc_reorderTasks": "Tillåter att appen flyttar aktiviteter till förgrunden eller bakgrunden. Appen kan göra detta utan åtgärd från dig.",
        "permdesc_requestDeletePackages": "Tillåter att en app begär paketborttagning.",
        "permdesc_requestIgnoreBatteryOptimizations": "Appen får be om tillstånd att ignorera batterioptimering.",
        "permdesc_requestInstallPackages": "Tillåter att en app begär paketinstallation.",
        "permdesc_route_media_output": "Tillåter att appen omdirigerar medieuppspelningar till andra externa enheter.",
        "permdesc_runInBackground": "Appen kan köras i bakgrunden. Det kan minska batteritiden.",
        "permdesc_sdcardRead": "Tillåter att appen läser innehållet på SD-kortet.",
        "permdesc_sdcardWrite": "Tillåter att appen skriver till SD-kortet.",
        "permdesc_sendSms": "Tillåter att appen skickar SMS. Detta kan leda till oväntade avgifter. Skadliga appar kan skicka meddelanden utan ditt godkännande vilket kan kosta pengar.",
        "permdesc_setAlarm": "Tillåter att appen ställer in ett alarm i en befintlig alarmapp. Vissa alarmappar har inte den här funktionen.",
        "permdesc_setInputCalibration": "Tillåter att appen ändrar kalibreringsparametrarna för pekskärmen. Detta behövs aldrig för vanliga appar.",
        "permdesc_setTimeZone": "Tillåter att appen ändrar mobilens tidszon.",
        "permdesc_setWallpaper": "Tillåter att appen anger systemets bakgrund.",
        "permdesc_setWallpaperHints": "Tillåter att appen ger tips om systemets bakgrundsstorlek.",
        "permdesc_sim_communication": "Tillåter att appen skickar kommandon till SIM-kortet. Detta är mycket farligt.",
        "permdesc_statusBar": "Tillåter att appen inaktiverar statusfältet eller lägger till och tar bort systemikoner.",
        "permdesc_statusBarService": "Tillåter att appen visas i statusfältet.",
        "permdesc_subscribedFeedsRead": "Tillåter att appen får information om aktuella synkroniserade flöden.",
        "permdesc_systemAlertWindow": "Appen kan visas ovanpå andra appar eller andra delar av skärmen. Detta kan störa den vanliga användningen av appar och påverka hur andra appar visas.",
        "permdesc_transmitIr": "Tillåter att appen använder mobilens IR-sändare.",
        "permdesc_uninstall_shortcut": "Tillåter att appen tar bort genvägar på startskärmen utan åtgärd från användaren.",
        "permdesc_useBiometric": "Tillåter att appen använder biometrisk maskinvara vid autentisering",
        "permdesc_useDataInBackground": "Data kan användas i bakgrunden av appen. Det kan öka dataanvändningen.",
        "permdesc_useFingerprint": "Tillåter att appen använder maskinvara för fingeravtryck vid autentisering",
        "permdesc_use_sip": "Tillåter att appen gör och tar emot SIP-anrop.",
        "permdesc_vibrate": "Tillåter att appen styr vibrationen.",
        "permdesc_wakeLock": "Tillåter att appen förhindrar att mobilen går in i viloläge.",
        "permdesc_writeCalendar": "Appen kan lägga till, ta bort eller ändra kalenderhändelser på mobilen. Appen kan skicka meddelanden som ser ut att komma från kalenderns ägare eller ändra uppgifter utan ägarens vetskap.",
        "permdesc_writeCallLog": "Tillåter att appen gör ändringar i mobilens samtalslista, inklusive i uppgifter om inkommande och utgående samtal. Skadliga program kan använda detta för att radera eller ändra din samtalslista.",
        "permdesc_writeContacts": "Tillåter att appen ändrar kontaktuppgifter som sparats på mobilen, inklusive information om hur ofta du har ringt, skickat e-post till eller på andra sätt kommunicerat med specifika personer. Med den här behörigheten tillåts appar att ta bort kontaktuppgifter.",
        "permdesc_writeGeolocationPermissions": "Tillåter att appen ändrar webbläsarens behörigheter för geografisk plats. Skadliga appar kan använda detta för att tillåta att platsinformation skickas till godtyckliga webbplatser.",
        "permdesc_writeHistoryBookmarks": "Tillåter att appen ändrar historiken för besökta sidor i webbläsaren eller bokmärken som sparats på telefonen. Det kan innebära att appen kan ta bort eller ändra webbläsarinformation. Observera att den här behörigheten kanske inte är tillämplig för webbläsare från tredje part eller andra appar med surffunktion.",
        "permdesc_writeSettings": "Tillåter att appen ändrar systemets inställningar. Skadliga appar kan skada systemets konfiguration.",
        "permdesc_writeSyncSettings": "Tillåter att appen ändrar synkroniseringsinställningarna för ett konto. Detta kan användas till exempel för att synkronisera appen Personer med ett konto.",
        "permgroupdesc_calendar": "få tillgång till din kalender",
        "permgroupdesc_calllog": "läsa och skriva samtalslogg",
        "permgroupdesc_camera": "ta bilder och spela in video",
        "permgroupdesc_contacts": "få tillgång till dina kontakter",
        "permgroupdesc_location": "komma åt enhetens platsuppgifter",
        "permgroupdesc_microphone": "spela in ljud",
        "permgroupdesc_phone": "ringa och hantera telefonsamtal",
        "permgroupdesc_sensors": "få åtkomst till sensordata om dina vitalparametrar",
        "permgroupdesc_sms": "skicka och visa sms",
        "permgroupdesc_storage": "få åtkomst till foton, media och filer på din enhet",
        "permgrouplab_calendar": "Kalender",
        "permgrouplab_calllog": "Samtalsloggar",
        "permgrouplab_camera": "Kamera",
        "permgrouplab_contacts": "Kontakter",
        "permgrouplab_location": "Plats",
        "permgrouplab_microphone": "Mikrofon",
        "permgrouplab_phone": "Telefon",
        "permgrouplab_sensors": "Kroppssensorer",
        "permgrouplab_sms": "Sms",
        "permgrouplab_storage": "Lagring",
        "permgrouprequest_calendar": "Vill du ge <b>",
        "permgrouprequest_calllog": "Vill du ge <b>",
        "permgrouprequest_camera": "Vill du ge <b>",
        "permgrouprequest_contacts": "Vill du ge <b>",
        "permgrouprequest_location": "Vill du ge <b>",
        "permgrouprequest_microphone": "Vill du ge <b>",
        "permgrouprequest_phone": "Vill du ge <b>",
        "permgrouprequest_sensors": "Vill du ge <b>",
        "permgrouprequest_sms": "Vill du ge <b>",
        "permgrouprequest_storage": "Vill du ge <b>",
        "permlab_acceptHandover": "fortsätta ett samtal från en annan app",
        "permlab_accessCoarseLocation": "få åtkomst till din ungefärliga position (nätverksbaserad)",
        "permlab_accessDrmCertificates": "tillgång till DRM-certifikat",
        "permlab_accessFineLocation": "få åtkomst till din exakta position (GPS- och nätverksbaserad)",
        "permlab_accessImsCallService": "tillgång till tjänsten för snabbmeddelanden vid samtal",
        "permlab_accessLocationExtraCommands": "få åtkomst till extra kommandon för platsleverantör",
        "permlab_accessNetworkConditions": "lyssna efter information om nätverksförhållanden",
        "permlab_accessNetworkState": "visa nätverksanslutningar",
        "permlab_accessNotifications": "få åtkomst till meddelanden",
        "permlab_accessWifiState": "visa Wi-Fi-anslutningar",
        "permlab_accessWimaxState": "ansluta till och koppla från WiMAX",
        "permlab_access_notification_policy": "åtkomst till Stör ej",
        "permlab_addVoicemail": "lägg till röstbrevlåda",
        "permlab_answerPhoneCalls": "svara på telefonsamtal",
        "permlab_bindCarrierMessagingService": "binda till en operatörs meddelandetjänst",
        "permlab_bindCarrierServices": "binder till leverantörstjänster",
        "permlab_bindConditionProviderService": "bind till en leverantörstjänst",
        "permlab_bindDreamService": "binda till en drömtjänst",
        "permlab_bindNotificationListenerService": "binda till en meddelandelyssnare",
        "permlab_bind_connection_service": "samverka med telefonitjänster",
        "permlab_bind_incall_service": "interagera med skärmen för inkommande samtal",
        "permlab_bluetooth": "parkoppla till Bluetooth-enheter",
        "permlab_bluetoothAdmin": "få åtkomst till Bluetooth-inställningar",
        "permlab_bodySensors": "få åtkomst till kroppssensorer (till exempel pulsmätare)",
        "permlab_broadcastSticky": "Skicka sticky broadcast",
        "permlab_callPhone": "ringa telefonnummer direkt",
        "permlab_camera": "ta bilder och spela in videoklipp",
        "permlab_changeNetworkState": "ändra nätverksanslutning",
        "permlab_changeTetherState": "ändra sammanlänkad anslutning",
        "permlab_changeWifiMulticastState": "tillåt Wi-Fi multicast-mottagning",
        "permlab_changeWifiState": "anslut och koppla från Wi-Fi",
        "permlab_changeWimaxState": "ändra WiMAX-status",
        "permlab_connection_manager": "hantera telekommunikationsanslutningar",
        "permlab_control_incall_experience": "förbättra användarupplevelsen för inkommande samtal.",
        "permlab_createNetworkSockets": "få fullständig nätverksåtkomst",
        "permlab_disableKeyguard": "inaktivera skärmlåset",
        "permlab_enableCarMode": "aktivera trafikläge",
        "permlab_expandStatusBar": "expandera/komprimera statusfält",
        "permlab_foregroundService": "kör tjänst i förgrunden",
        "permlab_getAccounts": "hitta konton på enheten",
        "permlab_getPackageSize": "mäta appens lagringsplats",
        "permlab_getTasks": "hämta appar som körs",
        "permlab_handoverStatus": "ta emot status för Android Beam-överföring",
        "permlab_install_shortcut": "installera genvägar",
        "permlab_invokeCarrierSetup": "anropa konfigurationsappen från operatören",
        "permlab_killBackgroundProcesses": "stänga andra appar",
        "permlab_manageFingerprint": "hantera maskinvara för fingeravtryck",
        "permlab_manageNetworkPolicy": "hantera nätverkspolicy",
        "permlab_manageOwnCalls": "dirigera samtal via systemet",
        "permlab_manageProfileAndDeviceOwners": "hantera profil- och enhetsägare",
        "permlab_modifyAudioSettings": "ändra dina ljudinställningar",
        "permlab_modifyNetworkAccounting": "ändra nätverksredovisningen",
        "permlab_nfc": "kontrollera närfältskommunikationen",
        "permlab_persistentActivity": "se till att appen alltid körs",
        "permlab_processOutgoingCalls": "omdirigera utgående samtal",
        "permlab_readCalendar": "Läsa kalenderhändelser och kalenderuppgifter",
        "permlab_readCallLog": "läs samtalslogg",
        "permlab_readCellBroadcasts": "läsa SMS-meddelanden",
        "permlab_readContacts": "läsa dina kontakter",
        "permlab_readHistoryBookmarks": "läsa dina bokmärken och din historik på webben",
        "permlab_readInstallSessions": "läsa installationssessioner",
        "permlab_readNetworkUsageHistory": "läsa historisk nätverksanvändning",
        "permlab_readPhoneNumbers": "läsa telefonnummer",
        "permlab_readPhoneState": "läsa telefonens status och identitet",
        "permlab_readSms": "läsa dina textmeddelanden (SMS eller MMS)",
        "permlab_readSyncSettings": "läsa synkroniseringsinställningar",
        "permlab_readSyncStats": "läsa synkroniseringsstatistik",
        "permlab_receiveBootCompleted": "köra vid start",
        "permlab_receiveMms": "ta emot textmeddelanden (MMS)",
        "permlab_receiveSms": "ta emot textmeddelanden (SMS)",
        "permlab_receiveWapPush": "ta emot textmeddelanden (WAP)",
        "permlab_recordAudio": "spela in ljud",
        "permlab_register_call_provider": "registrera nya telekommunikationsanslutningar",
        "permlab_register_sim_subscription": "registrera nya telekommunikationsanslutningar för SIM-kortet",
        "permlab_removeDrmCertificates": "ta bort DRM-certifikat",
        "permlab_reorderTasks": "byt ordning på appar som körs",
        "permlab_requestDeletePackages": "begär paketborttagning",
        "permlab_requestIgnoreBatteryOptimizations": "får be om tillstånd att ignorera batterioptimering",
        "permlab_requestInstallPackages": "begära installationspaket",
        "permlab_route_media_output": "dirigera medieuppspelning",
        "permlab_runInBackground": "kör i bakgrunden",
        "permlab_sdcardRead": "läsa innehållet på SD-kortet",
        "permlab_sdcardWrite": "ändra eller ta bort innehåll på SD-kortet",
        "permlab_sendSms": "skicka och visa sms",
        "permlab_setAlarm": "ställa in ett alarm",
        "permlab_setInputCalibration": "ändra kalibreringen för inmatningsenheten",
        "permlab_setTimeZone": "ange tidszon",
        "permlab_setWallpaper": "ange bakgrund",
        "permlab_setWallpaperHints": "anpassa bakgrundsstorleken",
        "permlab_sim_communication": "skicka kommandon till SIM-kortet",
        "permlab_statusBar": "inaktivera eller ändra statusfält",
        "permlab_statusBarService": "visas i statusfältet",
        "permlab_subscribedFeedsRead": "läsa flöden som du prenumererar på",
        "permlab_systemAlertWindow": "Appen kan visas ovanpå andra appar",
        "permlab_transmitIr": "tillåt IR-sändning",
        "permlab_uninstall_shortcut": "avinstallera genvägar",
        "permlab_useBiometric": "använd biometrisk maskinvara",
        "permlab_useDataInBackground": "använd data i bakgrunden",
        "permlab_useFingerprint": "använda maskinvara för fingeravtryck",
        "permlab_use_sip": "gör/ta emot SIP-anrop",
        "permlab_vibrate": "styra vibration",
        "permlab_wakeLock": "förhindra att telefonen sätts i viloläge",
        "permlab_writeCalendar": "lägga till eller ändra kalenderuppgifter och skicka e-post till gäster utan ägarens vetskap",
        "permlab_writeCallLog": "skriv samtalslogg",
        "permlab_writeContacts": "ändra kontakterna",
        "permlab_writeGeolocationPermissions": "Ändra geografisk plats för webbläsaren",
        "permlab_writeHistoryBookmarks": "skriva bokmärken och historik på webben",
        "permlab_writeSettings": "ändra systeminställningar",
        "permlab_writeSyncSettings": "aktivera/inaktivera synkronisering"
    },
    "sidebars": {
        "donate": {
            "bank_transfer_name": "Namn",
            "bitcoin_alt": "Donera via Bitcoin",
            "flattr_alt": "Donera via Flattr",
            "heading": "Donera",
            "hellotux": "👕 T-shirtar 👕 från",
            "hellotux_alt": "HELLOTUX",
            "hellotux_donation": "F-Droid kommer att få 3€ per skjorta som säljs.",
            "liberapay_alt": "Donera via Liberapay",
            "litecoin_alt": "Donera via Litecoin",
            "paypal_alt": "Donera via PayPal",
            "powered_by_donations": "F-Droid drivs av era donationer!",
            "via_bank_transfer": "Banköverföring"
        },
        "lang": {
            "change": "Ändra"
        },
        "last_updated": {
            "heading": "Senast uppdaterad"
        },
        "latest_packages": {
            "heading": "Senaste appar"
        },
        "news": {
            "heading": "Nyheter"
        },
        "search": {
            "heading": "Hitta appar",
            "noscript": "Kräver att Javascript är aktiverat",
            "search": "Sök"
        }
    }
}
